…
``` r
by_type<-tickets %>%
  group_by(violation_desc) %>%
  tally() %>%
  arrange(desc(n)) %>%
  mutate(percent=round(n/(sum(n))*100, 1))
by_type
```

    ## # A tibble: 95 x 3
    ##    violation_desc            n percent
    ##    <chr>                 <int>   <dbl>
    ##  1 METER EXPIRED CC     281060    22.3
    ##  2 METER EXPIRED        181329    14.4
    ##  3 OVER TIME LIMIT      156859    12.4
    ##  4 EXPIRED INSPECTION   138575    11  
    ##  5 STOP PROHIBITED CC   115898     9.2
    ##  6 STOPPING PROHIBITED   47395     3.8
    ##  7 PARKING PROHBITED     47232     3.7
    ##  8 PARKING PROHBITED CC  45082     3.6
    ##  9 OVER TIME LIMIT CC    24585     1.9
    ## 10 PASSENGR LOADNG ZONE  24359     1.9
    ## # ... with 85 more rows
…
