…
# Load Data and Packages

``` r
library(tidyverse) #data management and ggplot
library(igraph) # bipartite networks
library(RColorBrewer)

simpsons <- readr::read_delim("https://raw.githubusercontent.com/rfordatascience/tidytuesday/master/data/2019/2019-08-27/simpsons-guests.csv", delim = "|", quote = "")

simpsons
```

    ## # A tibble: 1,386 x 6
    ##    season number  production_code episode_title    guest_star   role       
    ##    <chr>  <chr>   <chr>           <chr>            <chr>        <chr>      
    ##  1 1      002–102 7G02            Bart the Genius  Marcia Wall~ Edna Kraba~
    ##  2 1      003–103 7G03            Homer's Odyssey  Sam McMurray Worker     
    ##  3 1      003–103 7G03            Homer's Odyssey  Marcia Wall~ Edna Kraba~
    ##  4 1      006–106 7G06            Moaning Lisa     Miriam Flynn Ms. Barr   
    ##  5 1      006–106 7G06            Moaning Lisa     Ron Taylor   Bleeding G~
    ##  6 1      007–107 7G09            The Call of the~ Albert Broo~ Cowboy Bob 
    ##  7 1      008–108 7G07            The Telltale He~ Marcia Wall~ Edna Kraba~
    ##  8 1      009–109 7G11            Life on the Fas~ Albert Broo~ Jacques    
    ##  9 1      010–110 7G10            Homer's Night O~ Sam McMurray Gulliver D~
    ## 10 1      011–111 7G13            The Crepes of W~ Christian C~ Gendarme O~
    ## # ... with 1,376 more rows
…
<!-- end list -->

``` r
#how many roles have each guest star played?
simpsons %>%
  group_by(guest_star) %>%
  summarize(length(role))
```

    ## # A tibble: 795 x 2
    ##    guest_star              `length(role)`
    ##    <chr>                            <int>
    ##  1 'N Sync                              1
    ##  2 "\"Weird Al\" Yankovic"              2
    ##  3 50 Cent                              1
    ##  4 Aaron Paul                           1
    ##  5 Adam Driver                          1
    ##  6 Adam Savage                          1
    ##  7 Adam Silver                          1
    ##  8 Adam West                            2
    ##  9 Aerosmith                            1
    ## 10 Al Roker                             1
    ## # ... with 785 more rows

``` r
# How many guest stars per season
simpsons %>%
  group_by(as.numeric(season)) %>% #make season numeric so in proper numerical order
  tally()
```

    ## Warning: NAs introduced by coercion

    ## # A tibble: 31 x 2
    ##    `as.numeric(season)`     n
    ##                   <dbl> <int>
    ##  1                    1    14
    ##  2                    2    31
    ##  3                    3    48
    ##  4                    4    44
    ##  5                    5    40
    ##  6                    6    41
    ##  7                    7    43
    ##  8                    8    38
    ##  9                    9    51
    ## 10                   10    55
    ## # ... with 21 more rows
…
