…
    ## See spec(...) for full column specifications.

``` r
nauts
```

    ## # A tibble: 1,277 x 24
    ##       id number nationwide_numb~ name  original_name sex   year_of_birth
    ##    <dbl>  <dbl>            <dbl> <chr> <chr>         <chr>         <dbl>
    ##  1     1      1                1 Gaga~ <U+0413><U+0410><U+0413><U+0410><U+0420><U+0418><U+041D> <U+042E><U+0440><U+0438><U+0439>~ male           1934
    ##  2     2      2                2 Tito~ <U+0422><U+0418><U+0422><U+041E><U+0412> <U+0413><U+0435><U+0440><U+043C><U+0430><U+043D>~ male           1935
    ##  3     3      3                1 Glen~ Glenn, John ~ male           1921
    ##  4     4      3                1 Glen~ Glenn, John ~ male           1921
    ##  5     5      4                2 Carp~ Carpenter, M~ male           1925
    ##  6     6      5                2 Niko~ <U+041D><U+0418><U+041A><U+041E><U+041B><U+0410><U+0415><U+0412> <U+0410><U+043D><U+0434>~ male           1929
    ##  7     7      5                2 Niko~ <U+041D><U+0418><U+041A><U+041E><U+041B><U+0410><U+0415><U+0412> <U+0410><U+043D><U+0434>~ male           1929
    ##  8     8      6                4 Popo~ <U+041F><U+041E><U+041F><U+041E><U+0412><U+0418><U+0427> <U+041F><U+0430><U+0432><U+0435>~ male           1930
    ##  9     9      6                4 Popo~ <U+041F><U+041E><U+041F><U+041E><U+0412><U+0418><U+0427> <U+041F><U+0430><U+0432><U+0435>~ male           1930
    ## 10    10      7                3 Schi~ Schirra, Wal~ male           1923
    ## # ... with 1,267 more rows, and 17 more variables: nationality <chr>,
    ## #   military_civilian <chr>, selection <chr>, year_of_selection <dbl>,
    ## #   mission_number <dbl>, total_number_of_missions <dbl>, occupation <chr>,
    ## #   year_of_mission <dbl>, mission_title <chr>, ascend_shuttle <chr>,
    ## #   in_orbit <chr>, descend_shuttle <chr>, hours_mission <dbl>,
    ## #   total_hrs_sum <dbl>, field21 <dbl>, eva_hrs_mission <dbl>,
    ## #   total_eva_hrs <dbl>
…
    ## [1] 564

### Nationality

How many different nationalities

``` r
nauts %>%
  distinct(number, .keep_all=TRUE) %>% #keep each unique naut
  group_by(nationality) %>% 
  tally() %>%
  arrange(desc(n))
```

    ## # A tibble: 39 x 2
    ##    nationality        n
    ##    <chr>          <int>
    ##  1 U.S.             344
    ##  2 U.S.S.R/Russia   122
    ##  3 Japan             12
    ##  4 China             11
    ##  5 Germany           11
    ##  6 Canada            10
    ##  7 France            10
    ##  8 Italy              7
    ##  9 U.K./U.S.          3
    ## 10 Belgium            2
    ## # ... with 29 more rows
…
